vcd/datapath.vcd
$date
	Mon May 19 22:30:13 2025
$end
$version
	Icarus Verilog
$end
$timescale
	1ps
$end
$scope module datapath_tb $end
$var wire 32 ! pc [31:0] $end
$var wire 32 " instruction [31:0] $end
$var wire 1 # RegWrite $end
$var wire 32 $ ReadData2 [31:0] $end
$var wire 1 % MemWrite $end
$var wire 1 & MemRead $end
$var wire 32 ' ALU_Result [31:0] $end
$var reg 1 ( clk $end
$var reg 1 ) rst $end
$scope module dut $end
$var wire 1 ( clk $end
$var wire 32 * instruction [31:0] $end
$var wire 32 + pc [31:0] $end
$var wire 1 ) rst $end
$var wire 32 , sign_extend_imme [31:0] $end
$var wire 5 - rt [4:0] $end
$var wire 5 . rs [4:0] $end
$var wire 5 / rd [4:0] $end
$var wire 32 0 pc_tmp [31:0] $end
$var wire 6 1 opcode [5:0] $end
$var wire 32 2 instruction_tmp [31:0] $end
$var wire 16 3 immediate [15:0] $end
$var wire 6 4 funct [5:0] $end
$var wire 32 5 alu_op2 [31:0] $end
$var wire 5 6 WriteReg [4:0] $end
$var wire 32 7 WriteData [31:0] $end
$var wire 1 # RegWrite $end
$var wire 1 8 RegDst $end
$var wire 32 9 ReadData_Mem [31:0] $end
$var wire 32 : ReadData2 [31:0] $end
$var wire 32 ; ReadData1 [31:0] $end
$var wire 1 % MemWrite $end
$var wire 1 < MemToReg $end
$var wire 1 & MemRead $end
$var wire 32 = ALU_Result [31:0] $end
$var wire 4 > ALU_Control [3:0] $end
$var wire 1 ? ALUSrc $end
$scope module al $end
$var wire 32 @ alu_op2 [31:0] $end
$var wire 1 A alu_zero $end
$var wire 32 B alu_op1 [31:0] $end
$var wire 4 C alu_control [3:0] $end
$var parameter 4 D ADD $end
$var parameter 4 E AND $end
$var parameter 4 F COMPLEMENT $end
$var parameter 4 G DECREMENT $end
$var parameter 4 H INCREMENT $end
$var parameter 4 I OR $end
$var parameter 4 J SUB $end
$var parameter 4 K XOR $end
$var reg 32 L alu_result [31:0] $end
$upscope $end
$scope module cu $end
$var wire 6 M controlunit_funct [5:0] $end
$var wire 6 N controlunit_opcode [5:0] $end
$var reg 1 ? controlunit_ALUSrc $end
$var reg 1 & controlunit_MemRead $end
$var reg 1 < controlunit_MemToReg $end
$var reg 1 % controlunit_MemWrite $end
$var reg 1 8 controlunit_RegDst $end
$var reg 1 # controlunit_RegWrite $end
$var reg 4 O controlunit_alu_control [3:0] $end
$upscope $end
$scope module dm $end
$var wire 1 & datamem_MemRead $end
$var wire 1 % datamem_MemWrite $end
$var wire 32 P datamem_address [31:0] $end
$var wire 1 ( datamem_clk $end
$var wire 32 Q datamem_Write [31:0] $end
$var reg 32 R datamem_Read [31:0] $end
$upscope $end
$scope module imem $end
$var wire 32 S inmem_instruction [31:0] $end
$var wire 32 T inmem_address [31:0] $end
$upscope $end
$scope module pc_d $end
$var wire 1 ( clk $end
$var wire 1 ) rst $end
$var reg 32 U pc_out [31:0] $end
$upscope $end
$scope module rf $end
$var wire 5 V regfile_ReadReg1 [4:0] $end
$var wire 5 W regfile_ReadReg2 [4:0] $end
$var wire 1 # regfile_RegWrite $end
$var wire 32 X regfile_WriteData [31:0] $end
$var wire 5 Y regfile_WriteReg [4:0] $end
$var wire 1 ( regfile_clk $end
$var wire 1 ) regfile_rst $end
$var reg 32 Z regfile_ReadData1 [31:0] $end
$var reg 32 [ regfile_ReadData2 [31:0] $end
$upscope $end
$scope module se $end
$var wire 16 \ signextend_in [15:0] $end
$var wire 32 ] signextend_out [31:0] $end
$upscope $end
$upscope $end
$upscope $end
$enddefinitions $end
$comment Show the parameter values. $end
$dumpall
b10 K
b110 J
b11 I
b111 H
b100 G
b0 F
b1 E
b101 D
$end
#0
$dumpvars
bx ]
bx \
bx [
bx Z
bx Y
bx X
bx W
bx V
b0 U
b0 T
bx S
bx R
bx Q
bx P
bx O
bx N
bx M
bx L
bx C
bx B
xA
bx @
x?
bx >
bx =
x<
bx ;
bx :
bx 9
x8
bx 7
bx 6
bx 5
bx 4
bx 3
bx 2
bx 1
b0 0
bx /
bx .
bx -
bx ,
b0 +
bx *
0)
0(
bx '
x&
x%
bx $
x#
bx "
b0 !
$end
#5000
1(
#10000
0(
#15000
1(
#20000
0(
1)
#25000
b100 !
b100 +
b100 0
b100 T
b100 U
1(
#30000
b0 9
b0 R
0(
#35000
b1000 !
b1000 +
b1000 0
b1000 T
b1000 U
1(
#40000
0(
#45000
b1100 !
b1100 +
b1100 0
b1100 T
b1100 U
1(
#50000
0(
#55000
b10000 !
b10000 +
b10000 0
b10000 T
b10000 U
1(
#60000
0(
#65000
b10100 !
b10100 +
b10100 0
b10100 T
b10100 U
1(
#70000
0(
#75000
b11000 !
b11000 +
b11000 0
b11000 T
b11000 U
1(
#80000
0(
#85000
b11100 !
b11100 +
b11100 0
b11100 T
b11100 U
1(
#90000
0(
#95000
b100000 !
b100000 +
b100000 0
b100000 T
b100000 U
1(
#100000
0(
#105000
b100100 !
b100100 +
b100100 0
b100100 T
b100100 U
1(
#110000
0(
#115000
b101000 !
b101000 +
b101000 0
b101000 T
b101000 U
1(
#120000
0(
#125000
b101100 !
b101100 +
b101100 0
b101100 T
b101100 U
1(
#130000
0(
#135000
b110000 !
b110000 +
b110000 0
b110000 T
b110000 U
1(
#140000
0(
#145000
b110100 !
b110100 +
b110100 0
b110100 T
b110100 U
1(
#150000
0(
#155000
b111000 !
b111000 +
b111000 0
b111000 T
b111000 U
1(
#160000
0(
#165000
b111100 !
b111100 +
b111100 0
b111100 T
b111100 U
1(
#170000
0(
#175000
b1000000 !
b1000000 +
b1000000 0
b1000000 T
b1000000 U
1(
#180000
0(
#185000
b1000100 !
b1000100 +
b1000100 0
b1000100 T
b1000100 U
1(
#190000
0(
#195000
b1001000 !
b1001000 +
b1001000 0
b1001000 T
b1001000 U
1(
#200000
0(
#205000
b1001100 !
b1001100 +
b1001100 0
b1001100 T
b1001100 U
1(
#210000
0(
#215000
b1010000 !
b1010000 +
b1010000 0
b1010000 T
b1010000 U
1(
#220000
0(
#225000
b1010100 !
b1010100 +
b1010100 0
b1010100 T
b1010100 U
1(
#230000
0(
#235000
b1011000 !
b1011000 +
b1011000 0
b1011000 T
b1011000 U
1(
#240000
0(
#245000
b1011100 !
b1011100 +
b1011100 0
b1011100 T
b1011100 U
1(
#250000
0(
#255000
b1100000 !
b1100000 +
b1100000 0
b1100000 T
b1100000 U
1(
#260000
0(
#265000
b1100100 !
b1100100 +
b1100100 0
b1100100 T
b1100100 U
1(
#270000
0(
#275000
b1101000 !
b1101000 +
b1101000 0
b1101000 T
b1101000 U
1(
#280000
0(
#285000
b1101100 !
b1101100 +
b1101100 0
b1101100 T
b1101100 U
1(
#290000
0(
#295000
b1110000 !
b1110000 +
b1110000 0
b1110000 T
b1110000 U
1(
#300000
0(
#305000
b1110100 !
b1110100 +
b1110100 0
b1110100 T
b1110100 U
1(
#310000
0(
#315000
b1111000 !
b1111000 +
b1111000 0
b1111000 T
b1111000 U
1(
#320000
0(
#325000
b1111100 !
b1111100 +
b1111100 0
b1111100 T
b1111100 U
1(
#330000
0(
#335000
b10000000 !
b10000000 +
b10000000 0
b10000000 T
b10000000 U
1(
#340000
0(
#345000
b10000100 !
b10000100 +
b10000100 0
b10000100 T
b10000100 U
1(
#350000
0(
#355000
b10001000 !
b10001000 +
b10001000 0
b10001000 T
b10001000 U
1(
#360000
0(
#365000
b10001100 !
b10001100 +
b10001100 0
b10001100 T
b10001100 U
1(
#370000
0(
#375000
b10010000 !
b10010000 +
b10010000 0
b10010000 T
b10010000 U
1(
#380000
0(
#385000
b10010100 !
b10010100 +
b10010100 0
b10010100 T
b10010100 U
1(
#390000
0(
#395000
b10011000 !
b10011000 +
b10011000 0
b10011000 T
b10011000 U
1(
#400000
0(
#405000
b10011100 !
b10011100 +
b10011100 0
b10011100 T
b10011100 U
1(
#410000
0(
#415000
b10100000 !
b10100000 +
b10100000 0
b10100000 T
b10100000 U
1(
#420000
0(
#425000
b10100100 !
b10100100 +
b10100100 0
b10100100 T
b10100100 U
1(
#430000
0(
#435000
b10101000 !
b10101000 +
b10101000 0
b10101000 T
b10101000 U
1(
#440000
0(
#445000
b10101100 !
b10101100 +
b10101100 0
b10101100 T
b10101100 U
1(
#450000
0(
#455000
b10110000 !
b10110000 +
b10110000 0
b10110000 T
b10110000 U
1(
#460000
0(
#465000
b10110100 !
b10110100 +
b10110100 0
b10110100 T
b10110100 U
1(
#470000
0(
#475000
b10111000 !
b10111000 +
b10111000 0
b10111000 T
b10111000 U
1(
#480000
0(
#485000
b10111100 !
b10111100 +
b10111100 0
b10111100 T
b10111100 U
1(
#490000
0(
#495000
b11000000 !
b11000000 +
b11000000 0
b11000000 T
b11000000 U
1(
#500000
0(
#505000
b11000100 !
b11000100 +
b11000100 0
b11000100 T
b11000100 U
1(
#510000
0(
#515000
b11001000 !
b11001000 +
b11001000 0
b11001000 T
b11001000 U
1(
#520000
0(
#525000
b11001100 !
b11001100 +
b11001100 0
b11001100 T
b11001100 U
1(
#530000
0(
#535000
b11010000 !
b11010000 +
b11010000 0
b11010000 T
b11010000 U
1(
#540000
0(
#545000
b11010100 !
b11010100 +
b11010100 0
b11010100 T
b11010100 U
1(
#550000
0(
#555000
b11011000 !
b11011000 +
b11011000 0
b11011000 T
b11011000 U
1(
#560000
0(
#565000
b11011100 !
b11011100 +
b11011100 0
b11011100 T
b11011100 U
1(
#570000
0(
#575000
b11100000 !
b11100000 +
b11100000 0
b11100000 T
b11100000 U
1(
#580000
0(
#585000
b11100100 !
b11100100 +
b11100100 0
b11100100 T
b11100100 U
1(
#590000
0(
#595000
b11101000 !
b11101000 +
b11101000 0
b11101000 T
b11101000 U
1(
#600000
0(
#605000
b11101100 !
b11101100 +
b11101100 0
b11101100 T
b11101100 U
1(
#610000
0(
#615000
b11110000 !
b11110000 +
b11110000 0
b11110000 T
b11110000 U
1(
#620000
0(
#625000
b11110100 !
b11110100 +
b11110100 0
b11110100 T
b11110100 U
1(
#630000
0(
#635000
b11111000 !
b11111000 +
b11111000 0
b11111000 T
b11111000 U
1(
#640000
0(
#645000
b11111100 !
b11111100 +
b11111100 0
b11111100 T
b11111100 U
1(
#650000
0(
#655000
b100000000 !
b100000000 +
b100000000 0
b100000000 T
b100000000 U
1(
#660000
0(
#665000
b100000100 !
b100000100 +
b100000100 0
b100000100 T
b100000100 U
1(
#670000
0(
#675000
b100001000 !
b100001000 +
b100001000 0
b100001000 T
b100001000 U
1(
#680000
0(
#685000
b100001100 !
b100001100 +
b100001100 0
b100001100 T
b100001100 U
1(
#690000
0(
#695000
b100010000 !
b100010000 +
b100010000 0
b100010000 T
b100010000 U
1(
#700000
0(
#705000
b100010100 !
b100010100 +
b100010100 0
b100010100 T
b100010100 U
1(
#710000
0(
#715000
b100011000 !
b100011000 +
b100011000 0
b100011000 T
b100011000 U
1(
#720000
0(
#725000
b100011100 !
b100011100 +
b100011100 0
b100011100 T
b100011100 U
1(
#730000
0(
#735000
b100100000 !
b100100000 +
b100100000 0
b100100000 T
b100100000 U
1(
#740000
0(
#745000
b100100100 !
b100100100 +
b100100100 0
b100100100 T
b100100100 U
1(
#750000
0(
#755000
b100101000 !
b100101000 +
b100101000 0
b100101000 T
b100101000 U
1(
#760000
0(
#765000
b100101100 !
b100101100 +
b100101100 0
b100101100 T
b100101100 U
1(
#770000
0(
#775000
b100110000 !
b100110000 +
b100110000 0
b100110000 T
b100110000 U
1(
#780000
0(
#785000
b100110100 !
b100110100 +
b100110100 0
b100110100 T
b100110100 U
1(
#790000
0(
#795000
b100111000 !
b100111000 +
b100111000 0
b100111000 T
b100111000 U
1(
#800000
0(
#805000
b100111100 !
b100111100 +
b100111100 0
b100111100 T
b100111100 U
1(
#810000
0(
#815000
b101000000 !
b101000000 +
b101000000 0
b101000000 T
b101000000 U
1(
#820000
0(
#825000
b101000100 !
b101000100 +
b101000100 0
b101000100 T
b101000100 U
1(
#830000
0(
#835000
b101001000 !
b101001000 +
b101001000 0
b101001000 T
b101001000 U
1(
#840000
0(
#845000
b101001100 !
b101001100 +
b101001100 0
b101001100 T
b101001100 U
1(
#850000
0(
#855000
b101010000 !
b101010000 +
b101010000 0
b101010000 T
b101010000 U
1(
#860000
0(
#865000
b101010100 !
b101010100 +
b101010100 0
b101010100 T
b101010100 U
1(
#870000
0(
#875000
b101011000 !
b101011000 +
b101011000 0
b101011000 T
b101011000 U
1(
#880000
0(
#885000
b101011100 !
b101011100 +
b101011100 0
b101011100 T
b101011100 U
1(
#890000
0(
#895000
b101100000 !
b101100000 +
b101100000 0
b101100000 T
b101100000 U
1(
#900000
0(
#905000
b101100100 !
b101100100 +
b101100100 0
b101100100 T
b101100100 U
1(
#910000
0(
#915000
b101101000 !
b101101000 +
b101101000 0
b101101000 T
b101101000 U
1(
#920000
0(
#925000
b101101100 !
b101101100 +
b101101100 0
b101101100 T
b101101100 U
1(
#930000
0(
#935000
b101110000 !
b101110000 +
b101110000 0
b101110000 T
b101110000 U
1(
#940000
0(
#945000
b101110100 !
b101110100 +
b101110100 0
b101110100 T
b101110100 U
1(
#950000
0(
#955000
b101111000 !
b101111000 +
b101111000 0
b101111000 T
b101111000 U
1(
#960000
0(
#965000
b101111100 !
b101111100 +
b101111100 0
b101111100 T
b101111100 U
1(
#970000
0(
#975000
b110000000 !
b110000000 +
b110000000 0
b110000000 T
b110000000 U
1(
#980000
0(
#985000
b110000100 !
b110000100 +
b110000100 0
b110000100 T
b110000100 U
1(
#990000
0(
#995000
b110001000 !
b110001000 +
b110001000 0
b110001000 T
b110001000 U
1(
#1000000
0(
#1005000
b110001100 !
b110001100 +
b110001100 0
b110001100 T
b110001100 U
1(
#1010000
0(
#1015000
b110010000 !
b110010000 +
b110010000 0
b110010000 T
b110010000 U
1(
#1020000
0(
#1025000
b110010100 !
b110010100 +
b110010100 0
b110010100 T
b110010100 U
1(
#1030000
0(
#1035000
b110011000 !
b110011000 +
b110011000 0
b110011000 T
b110011000 U
1(
#1040000
0(
#1045000
b110011100 !
b110011100 +
b110011100 0
b110011100 T
b110011100 U
1(
#1050000
0(
#1055000
b110100000 !
b110100000 +
b110100000 0
b110100000 T
b110100000 U
1(
#1060000
0(
#1065000
b110100100 !
b110100100 +
b110100100 0
b110100100 T
b110100100 U
1(
#1070000
0(
#1075000
b110101000 !
b110101000 +
b110101000 0
b110101000 T
b110101000 U
1(
#1080000
0(
#1085000
b110101100 !
b110101100 +
b110101100 0
b110101100 T
b110101100 U
1(
#1090000
0(
#1095000
b110110000 !
b110110000 +
b110110000 0
b110110000 T
b110110000 U
1(
#1100000
0(
#1105000
b110110100 !
b110110100 +
b110110100 0
b110110100 T
b110110100 U
1(
#1110000
0(
#1115000
b110111000 !
b110111000 +
b110111000 0
b110111000 T
b110111000 U
1(
#1120000
0(
#1125000
b110111100 !
b110111100 +
b110111100 0
b110111100 T
b110111100 U
1(
#1130000
0(
#1135000
b111000000 !
b111000000 +
b111000000 0
b111000000 T
b111000000 U
1(
